{
    "shooters":[
        "splattershotjr",
        "customsplattershotjr",
        "52gal",
        "52galdeco",
        "96gal",
        "96galdeco",
        "aerospraymg",
        "aerosprayrg",
        "dualsquelcher",
        "customdualsquelcher",
        "h3nozzlenose",
        "h3nozzlenosed",
        "jetsquelcher",
        "customjetsquelcher",
        "l3nozzlenose",
        "l3nozzlenosed",
        "nzap85",
        "nzap89",
        "splashomatic",
        "neosplashomatic",
        "splattershot",
        "heroshotreplica",
        "octoshotreplica",
        "tentateksplattershot",
        "splattershotpro",
        "forgesplattershotpro",
        "splooshomatic",
        "neosplooshomatic",
        "wasabisplattershot",
        "berrysplattershotpro",
        "splooshomatic7",
        "aerospraypg",
        "nzap83",
        "cherryh3nozzlenose"
    ],
    "rollers":[
        "carbonroller",
        "carbonrolledeco",
        "dynamoroller",
        "golddynamoroller",
        "splatroller",
        "herorollerreplica",
        "krakonsplatroller",
        "tempereddynamoroller",
        "corocorosplatroller"
    ],
    "brushes":[
        "inkbrush",
        "inkbrushnoveau",
        "octobrush",
        "octobrushnoveau",
        "permanentinkbrush"
    ],
    "blasters":[
        "blaster",
        "customblaster",
        "lunablaster",
        "lunablasterneo",
        "rangeblaster",
        "customrangeblaster",
        "rapidblaster",
        "rapidblasterdeco",
        "rapidblasterpro",
        "rapidblasterprodeco",
        "grimrangeblaster"
    ],
    "sloshers":[
        "slosher",
        "slosherdeco",
        "sloshingmachine",
        "sloshingmachineneo",
        "trislosher",
        "trisloshernoveau",
        "sodaslosher"
    ],
    "chargers":[
        "bamboozler14mki",
        "bamboozler14mkii",
        "classicsquiffer",
        "newsquiffer",
        "eliter3k",
        "customeliter3k",
        "eliter3kscope",
        "customeliter3kscope",
        "splatcharger",
        "kelpsplatcharger",
        "herochargerreplica",
        "splatterscope",
        "kelpsplatterscope",
        "freshsquiffer",
        "bamboozler14mkiii",
        "bentosplatcharger",
        "bentosplatterscope"
    ],
    "splatlings":[
        "heavysplatling",
        "heavysplatlingdeco",
        "hydrasplatling",
        "customhydrasplatling",
        "minisplatling",
        "zinkminisplatling",
        "refurbishedminisplatling",
        "heavysplatlingremix"
    ]
}